Prevent:
+-------+------------------+------------------+--------------------+-----------------------+-----------------+
|summary|  br_percentile_50|  hr_percentile_10|         hr_rmssd_50|temp_skin_percentile_99|      total_sleep|
+-------+------------------+------------------+--------------------+-----------------------+-----------------+
|  count|          12754863|          12754863|            12754863|               12754863|         12754863|
|   mean|15.763077717426428| 59.95150641563516|   47.88079544335006|      35.85501840515293|26008.83063581318|
| stddev| 2.207427588294082| 7.648275626283399|  12.211491003956803|     0.5992873004382974|4702.860364191441|
|    min| 9.483779948539144|  40.0001635689328|1.975500612796891E-4|                   33.0|            10920|
|    max|             29.58|118.55332463706094|  142.64909278059235|                  37.25|            99370|
+-------+------------------+------------------+--------------------+-----------------------+-----------------+

Conceive:
+-------+------------------+------------------+-----------------+-------------------+------------------+
|summary|             br_50|             hr_10|     hrv_rmssd_50|temperature_skin_99|       total_sleep|
+-------+------------------+------------------+-----------------+-------------------+------------------+
|  count|          12375496|          12375496|         12375495|           12375496|          12375496|
|   mean|15.809764256883106| 59.99490147607827|49.58280611000201| 35.854191074846355|25683.190290797233|
| stddev|2.2528618761739385|7.7144996177198575|13.08848941949372| 0.6309423862324587| 4944.138630252396|
|    min|              9.18|            6.3344|           2.0E-4|              16.03|           10800.0|
|    max|           29.5802|          198.5621|         334.7736|              60.79|           99300.0|
+-------+------------------+------------------+-----------------+-------------------+------------------+

Prevent monthly means:
+-------------------+----------------------------+------------------+---------------------+------------------+---------------------+
|date_month         |avg(temp_skin_percentile_99)|avg(hr_rmssd_50)  |avg(br_percentile_50)|avg(total_sleep)  |avg(hr_percentile_10)|
+-------------------+----------------------------+------------------+---------------------+------------------+---------------------+
|2021-03-01 00:00:00|35.92959312000107           |47.24449328335737 |15.702573435845776   |26031.92902797667 |60.153269427625446   |
|2021-02-01 00:00:00|35.94109797387876           |47.142736328390605|15.689911592131223   |26243.667343486315|60.11689574548704    |
|2021-01-01 00:00:00|35.93437308037313           |47.09883519792212 |15.69133369966487    |26381.709437834765|60.11937158357753    |
|2020-12-01 00:00:00|35.92469900108138           |47.03891875895147 |15.757127091467535   |26222.769560581655|60.37197849492433    |
|2020-11-01 00:00:00|35.881622686497785          |47.56714830876211 |15.765158174882345   |26177.589223351923|59.90109468409112    |
|2020-10-01 00:00:00|35.84820987318776           |47.813964697589476|15.785932639650866   |26212.522412490558|59.722822322918134   |
|2020-09-01 00:00:00|35.800981126457074          |48.031181139979644|15.779069674647818   |26050.70896500162 |59.16372139921879    |
|2020-08-01 00:00:00|35.76253796939435           |48.23468010764723 |15.810884630118812   |25936.7239220465  |58.790742575871185   |
|2020-07-01 00:00:00|35.77775127458883           |47.93302837438472 |15.796417320108352   |25812.681905898527|59.006807586790174   |
|2020-06-01 00:00:00|35.811824153575444          |47.79026507766641 |15.80947938875326    |25824.40388864497 |59.43289209104942    |
|2020-05-01 00:00:00|35.86251230777241           |47.55314363342264 |15.780798127889705   |26219.088077420027|59.85701994434403    |
|2020-04-01 00:00:00|35.89097588981155           |47.54674815268278 |15.720984487597358   |26634.53966996994 |59.75835138540394    |
|2020-03-01 00:00:00|35.89856426406733           |47.799848254567124|15.72275564452566    |26351.458826137685|60.078530378480565   |
|2020-02-01 00:00:00|35.91482810204557           |47.920413458323836|15.728047364050356   |25986.178219432823|60.589196853650506   |
|2020-01-01 00:00:00|35.90597710479139           |47.954367826117725|15.70674455576868    |26014.62589373773 |60.511881789418936   |
|2019-12-01 00:00:00|35.90570132803992           |47.87993045873844 |15.79367803773291    |26008.995205374868|60.99246166985306    |
|2019-11-01 00:00:00|35.89205799998309           |48.08281946619592 |15.780371305758885   |25966.972767815587|60.67115289536274    |
|2019-10-01 00:00:00|35.83268839964544           |48.415840753379605|15.783639795035262   |25949.892732330078|59.99861282339176    |
|2019-09-01 00:00:00|35.78749664788296           |48.64950670945691 |15.791451873022515   |25862.790786505062|59.560275822645785   |
|2019-08-01 00:00:00|35.75504829477645           |48.68246720292456 |15.803827397223756   |25726.59302705796 |59.28569756701414    |
|2019-07-01 00:00:00|35.75429911029794           |48.63350663204176 |15.820085076534154   |25490.681584640934|59.333906663272394   |
|2019-06-01 00:00:00|35.7873461799304            |48.302023571100065|15.838714365347771   |25439.35784739057 |59.92331616286784    |
|2019-05-01 00:00:00|35.83936496022541           |48.07592780462219 |15.798434440552612   |25514.555572180245|60.39141065444405    |
|2019-04-01 00:00:00|35.86176724980546           |48.00962719919056 |15.744878539163441   |25818.455820161962|60.362529851085235   |
|2019-03-01 00:00:00|35.8740721540078            |47.874580106176914|15.675084326264923   |26089.767337135996|60.35387888241789    |
|2019-02-01 00:00:00|35.88822282535416           |48.09606862198072 |15.716546985467602   |25870.09355781093 |60.97100156491073    |
|2019-01-01 00:00:00|35.87416550646378           |48.026482306873966|15.690665531844152   |25847.724047172007|61.01231443410139    |
|2018-12-01 00:00:00|35.8456743560836            |47.7035389588779  |15.793148851931868   |25938.12158529182 |61.65678937683115    |
|2018-11-01 00:00:00|35.799276883809775          |47.87614922048423 |15.77463208400094    |25766.018969832698|61.91759834302148    |
|2018-10-01 00:00:00|35.70666378830083           |55.22289323857354 |15.460941516554872   |26125.459610027854|59.22095850399623    |
|2018-09-01 00:00:00|35.66257660550458           |50.00217430366419 |15.319071602310041   |26476.788990825688|53.170095615779346   |
|2018-08-01 00:00:00|35.543175                   |36.271790547341084|15.738282734264677   |26178.333333333332|53.34126796299538    |
+-------------------+----------------------------+------------------+---------------------+------------------+---------------------+


Conceive monthly means:
+-------------------+------------------------+------------------+------------------+------------------+------------------+
|date_month         |avg(temperature_skin_99)|avg(hr_10)        |avg(hrv_rmssd_50) |avg(br_50)        |avg(total_sleep)  |
+-------------------+------------------------+------------------+------------------+------------------+------------------+
|2021-04-01 00:00:00|35.92404768068099       |60.318729533358464|49.007296452360166|15.769806159596406|26002.309406706358|
|2021-03-01 00:00:00|35.93303302375682       |60.17630900472682 |49.004308908122304|15.763899101952768|25740.849848667025|
|2021-02-01 00:00:00|35.94453638794682       |60.22616178627258 |48.9073725611096  |15.754666983206995|25974.083212764337|
|2021-01-01 00:00:00|35.93698463848925       |60.219998547572914|48.81238690386553 |15.758329123825646|26116.289103988853|
|2020-12-01 00:00:00|35.928837391132866      |60.46357600022152 |48.81665902826228 |15.826805856857934|25938.764334321106|
|2020-11-01 00:00:00|35.884450656265564      |60.001328334840416|49.366347191992936|15.833944011549564|25893.325652684613|
|2020-10-01 00:00:00|35.84832964788578       |59.77800743366679 |49.59584513647146 |15.84590840844974 |25912.871775557232|
|2020-09-01 00:00:00|35.79988519679234       |59.2111738020899  |49.81596779775978 |15.835893593680517|25770.215231297025|
|2020-08-01 00:00:00|35.76123792993026       |58.82112562493834 |50.00593153555662 |15.861846968288194|25642.96786522677 |
|2020-07-01 00:00:00|35.77628043382433       |59.034628057320646|49.72105068467854 |15.840232060100982|25513.89618877918 |
|2020-06-01 00:00:00|35.81011623337781       |59.43660931195829 |49.48405865884596 |15.847818113841617|25528.42068396025 |
|2020-05-01 00:00:00|35.860072788007614      |59.801747850345905|49.108280595498506|15.809929092121795|25910.74592714293 |
|2020-04-01 00:00:00|35.88836802477886       |59.70107667624469 |49.02274710257451 |15.747994684173138|26339.34646965432 |
|2020-03-01 00:00:00|35.897440649305125      |60.04833881506123 |49.357194951717176|15.76112333044979 |26043.633828232338|
|2020-02-01 00:00:00|35.91063443219719       |60.604899793384654|49.614849743149954|15.77628158793016 |25664.312915647253|
|2020-01-01 00:00:00|35.904063997644656      |60.512297689529944|49.64745795937593 |15.752017179864628|25664.763870081446|
|2019-12-01 00:00:00|35.90350892041306       |60.99665101604714 |49.62933955614776 |15.837961234204533|25636.23953109407 |
|2019-11-01 00:00:00|35.888034935656194      |60.68216373988447 |49.75510760049532 |15.821267919559611|25615.903838499977|
|2019-10-01 00:00:00|35.826438478182986      |60.00897885618108 |50.12222016422083 |15.823810798652495|25589.842038145813|
|2019-09-01 00:00:00|35.7817959819422        |59.580860520120915|50.38561598533039 |15.832601516891419|25498.62628369281 |
|2019-08-01 00:00:00|35.751705898904675      |59.28740076402436 |50.38649585296034 |15.842560227983023|25368.113869074085|
|2019-07-01 00:00:00|35.75065178074863       |59.33987862897918 |50.39411787327424 |15.864137749298052|25115.67750744899 |
|2019-06-01 00:00:00|35.784129605271104      |59.908966331692206|50.0793614882182  |15.879117281371125|25063.40789457201 |
|2019-05-01 00:00:00|35.835008298884         |60.384440138072655|49.79497314766299 |15.836838152305265|25139.397111988255|
|2019-04-01 00:00:00|35.849664675987896      |60.44829207795085 |49.66306251217611 |15.787976715287185|25406.661884474266|
|2019-03-01 00:00:00|35.83991298491838       |60.729182717848026|49.54734771829079 |15.753526222907567|25599.404682155706|
|2019-02-01 00:00:00|35.88833702432246       |60.95463587594505 |49.730466349509264|15.747316005042961|25506.06397295268 |
|2019-01-01 00:00:00|35.875662513822505      |60.95242419472451 |49.672346352439114|15.729938610856168|25484.538834380368|
|2018-12-01 00:00:00|35.84743731043125       |61.5859696934676  |49.423229609919375|15.830922188274277|25497.122446031975|
|2018-11-01 00:00:00|35.7986433575182        |61.883987246685344|49.588906395421546|15.810934325744322|25274.91087065299 |
|2018-10-01 00:00:00|35.73995215311006       |57.75129449760766 |56.07675933014357 |15.14895          |25892.48803827751 |
|2018-09-01 00:00:00|35.774979999999985      |54.05879600000004 |50.28454620000003 |15.508525599999999|25779.26          |
|2018-08-01 00:00:00|35.87023809523807       |52.87802619047619 |51.39557619047619 |16.18072301587302 |25256.26984126984 |
|2018-07-01 00:00:00|35.692857142857136      |51.889564285714286|51.89320357142857 |16.677710714285713|22250.35714285714 |
|2018-04-01 00:00:00|36.33                   |78.1109           |null              |17.5398           |19610.0           |
|2018-02-01 00:00:00|35.5175                 |51.635149999999996|48.1549           |16.1782875        |22111.25          |
|2017-07-01 00:00:00|35.635                  |57.283500000000004|52.94955          |17.95835          |19080.0           |
|2017-04-01 00:00:00|35.235                  |61.462050000000005|53.26345          |18.0657           |27485.0           |
|2017-03-01 00:00:00|34.58833333333333       |59.60831666666667 |48.65743333333333 |17.793516666666665|24788.333333333332|
+-------------------+------------------------+------------------+------------------+------------------+------------------+

Prevent monthly stddev
+-------------------+-------------------------------+-------------------+------------------------+-------------------+------------------------+
|date_month         |stddev(temp_skin_percentile_99)|stddev(hr_rmssd_50)|stddev(br_percentile_50)|stddev(total_sleep)|stddev(hr_percentile_10)|
+-------------------+-------------------------------+-------------------+------------------------+-------------------+------------------------+
|2021-03-01 00:00:00|0.578484248826345              |12.029452029919135 |2.2115447896276685      |4538.2919820616125 |7.6210754518582275      |
|2021-02-01 00:00:00|0.5780208953930361             |11.99113879723176  |2.1913354604349258      |4602.281641347987  |7.589751879798209       |
|2021-01-01 00:00:00|0.5816205965425758             |11.960156612350286 |2.194826905378531       |4747.054860323061  |7.559231695353152       |
|2020-12-01 00:00:00|0.5854688479813704             |11.913702803033015 |2.201772384132586       |4774.6453424332985 |7.5462443453438635      |
|2020-11-01 00:00:00|0.5956974584350169             |12.077050077982458 |2.22125393879934        |4686.174700076656  |7.568510676976649       |
|2020-10-01 00:00:00|0.6049315022781655             |12.142035804450115 |2.224533192403859       |4683.551103743033  |7.5541804983480345      |
|2020-09-01 00:00:00|0.6124087785810123             |12.221159484351682 |2.210402669314568       |4606.467330343609  |7.559677765009341       |
|2020-08-01 00:00:00|0.6184263428401598             |12.346926657610695 |2.2130484635461793      |4638.660410951646  |7.629246723886314       |
|2020-07-01 00:00:00|0.6187942754378117             |12.355033814602933 |2.2067537827477226      |4608.694533684827  |7.598325593005028       |
|2020-06-01 00:00:00|0.6120061665733184             |12.23410760767332  |2.1997353175625594      |4607.54296090045   |7.610182480168505       |
|2020-05-01 00:00:00|0.5968043169022904             |12.15317315943711  |2.1800622099384133      |4645.5495799458795 |7.651084944185247       |
|2020-04-01 00:00:00|0.5891555397805025             |12.165185587240524 |2.1648016560809715      |4676.941639722317  |7.602293980510756       |
|2020-03-01 00:00:00|0.5860606495693041             |12.143318108698992 |2.189145992248598       |4735.035670879711  |7.613779508587367       |
|2020-02-01 00:00:00|0.5777905510573813             |12.12748154716271  |2.194032652862769       |4720.9902477599    |7.6802451284904265      |
|2020-01-01 00:00:00|0.5831429914278499             |12.17531548693826  |2.1934894252949926      |4802.921900050814  |7.623082073099818       |
|2019-12-01 00:00:00|0.5825663476098863             |12.058865898231957 |2.2104504472433724      |4897.538886365667  |7.668206913710851       |
|2019-11-01 00:00:00|0.5818430449533467             |12.115670138415448 |2.206065632158728       |4758.8551245258195 |7.6244846457612345      |
|2019-10-01 00:00:00|0.5998493185956023             |12.295835806270222 |2.222737884180955       |4730.962215800727  |7.631417824843692       |
|2019-09-01 00:00:00|0.6109630177614983             |12.408711130654488 |2.2256182652398198      |4707.151915588379  |7.638953144678992       |
|2019-08-01 00:00:00|0.6161747896914875             |12.45705969603617  |2.230034245874603       |4681.205623284602  |7.653152726916532       |
|2019-07-01 00:00:00|0.6152989051619991             |12.483799256932121 |2.23873496458441        |4692.753331700605  |7.668913665692237       |
|2019-06-01 00:00:00|0.6103911388179338             |12.384670963533491 |2.2412888507251183      |4700.161697938791  |7.708816597830288       |
|2019-05-01 00:00:00|0.5992763780062681             |12.231223895884062 |2.230991142808041       |4657.896839521495  |7.65977523479734        |
|2019-04-01 00:00:00|0.5887203771795103             |12.245190553896903 |2.20589445805608        |4652.714676397548  |7.5964653210789574      |
|2019-03-01 00:00:00|0.5806929643448869             |12.410999271370423 |2.1779640612600244      |4693.499336596503  |7.573557662071955       |
|2019-02-01 00:00:00|0.5768159827322598             |12.322063743412363 |2.2027559441883455      |4708.446677220687  |7.7368173416595445      |
|2019-01-01 00:00:00|0.5803137184025304             |12.335495836918277 |2.1927670312338985      |4819.716067091521  |7.810252047388482       |
|2018-12-01 00:00:00|0.5840757606046937             |12.175042286983906 |2.2121645889704595      |5001.153050899736  |7.983090513080607       |
|2018-11-01 00:00:00|0.5920043865733772             |12.253060605734548 |2.185507825251658       |4857.6313961423875 |8.212014586498418       |
|2018-10-01 00:00:00|0.7219634141081863             |13.801897215779446 |1.7799071622111373      |4851.2853503724555 |7.551982392711518       |
|2018-09-01 00:00:00|0.6594729643043235             |13.559941355021817 |2.615153367294835       |4291.567958278582  |7.178640970549531       |
|2018-08-01 00:00:00|0.7781711357991294             |7.917886384642742  |1.0351927086877872      |3668.5514439584595 |2.7843476377478367      |
+-------------------+-------------------------------+-------------------+------------------------+-------------------+------------------------+

Conceive monthly stddev
+-------------------+---------------------------+------------------+--------------------+-------------------+-------------------+
|date_month         |stddev(temperature_skin_99)|stddev(hr_10)     |stddev(hrv_rmssd_50)|stddev(br_50)      |stddev(total_sleep)|
+-------------------+---------------------------+------------------+--------------------+-------------------+-------------------+
|2021-04-01 00:00:00|0.6102843707609409         |7.6637468848999095|12.916313238211401  |2.2711922487985445 |4889.672759612029  |
|2021-03-01 00:00:00|0.6061009785050641         |7.628018344329098 |12.897951718901087  |2.2529971730732052 |4759.705557475898  |
|2021-02-01 00:00:00|0.6033200320105054         |7.611550902425176 |12.874255938716722  |2.2341012891675796 |4832.044029063731  |
|2021-01-01 00:00:00|0.6071089237738346         |7.58899904504546  |12.809432474202959  |2.2407887981047008 |4974.500268622609  |
|2020-12-01 00:00:00|0.6109126889460805         |7.587744346209186 |12.780351514044986  |2.2450336931895696 |5005.008215035689  |
|2020-11-01 00:00:00|0.6198135130403924         |7.603519945540603 |12.931992572266136  |2.2595382249911595 |4929.581400776173  |
|2020-10-01 00:00:00|0.6297592327009526         |7.587641925280287 |12.978818887446877  |2.262479542196877  |4918.48328148287   |
|2020-09-01 00:00:00|0.6359728532961237         |7.620996685241462 |13.036394152238243  |2.2547527150593303 |4846.913810722974  |
|2020-08-01 00:00:00|0.6416604998805532         |7.715063012194108 |13.120110653667279  |2.2586016883743545 |4877.679790998885  |
|2020-07-01 00:00:00|0.6422828737102076         |7.708228475602051 |13.14239955489151   |2.2480461821735473 |4840.469596807833  |
|2020-06-01 00:00:00|0.6358606817043044         |7.7037533977405035|13.067695817811913  |2.240006210993892  |4834.044496613366  |
|2020-05-01 00:00:00|0.6207886817230752         |7.7117232320992715|12.99500260639118   |2.219831892691503  |4872.5355142730095 |
|2020-04-01 00:00:00|0.612794329761078          |7.664582887577552 |12.959045571548707  |2.2069042000450403 |4893.994671427079  |
|2020-03-01 00:00:00|0.6151073524122532         |7.676502892421509 |13.003895891107556  |2.2360923460618887 |4957.348653666685  |
|2020-02-01 00:00:00|0.6096708163456598         |7.77057156443665  |13.074002951145534  |2.243926336530382  |4988.563364848678  |
|2020-01-01 00:00:00|0.6212801183222201         |7.709939907510377 |13.138463097053156  |2.2388317323909406 |5048.773896718299  |
|2019-12-01 00:00:00|0.6209894754003695         |7.730595785031836 |13.050564818159458  |2.250065251854801  |5152.922889677095  |
|2019-11-01 00:00:00|0.6175180358516558         |7.6824176202485   |13.039769482545049  |2.241414307808296  |4997.928827012078  |
|2019-10-01 00:00:00|0.6402326093025723         |7.706759285542482 |13.209265046442615  |2.2651607905506173 |4973.612881840118  |
|2019-09-01 00:00:00|0.6467821571120054         |7.7242893095015255|13.323622869222895  |2.2751516669566088 |4952.23671019149   |
|2019-08-01 00:00:00|0.6541352281241404         |7.735171489040778 |13.353535142153811  |2.2780864187075784 |4926.421992387134  |
|2019-07-01 00:00:00|0.6560979633456715         |7.766103956846304 |13.41435962267477   |2.2936328296703095 |4949.206825174467  |
|2019-06-01 00:00:00|0.6442697274641597         |7.776608566967017 |13.364316739097575  |2.2957269999230197 |4955.21715325394   |
|2019-05-01 00:00:00|0.6350410047428791         |7.699950083664022 |13.193566000306324  |2.2849157290792608 |4910.58908156271   |
|2019-04-01 00:00:00|0.6423944602380546         |7.683416446380997 |13.148322388805287  |2.2618715423231155 |4900.399435489088  |
|2019-03-01 00:00:00|0.6735167471194955         |7.751424895873175 |13.19897392574018   |2.239932648126899  |4954.22193911181   |
|2019-02-01 00:00:00|0.6165265118469072         |7.777361814568502 |13.218230038724759  |2.2487928454899895 |4968.239517343587  |
|2019-01-01 00:00:00|0.611890455648228          |7.82809693136015  |13.280015083625306  |2.2424621247598706 |5084.418668028243  |
|2018-12-01 00:00:00|0.6165922096879315         |8.037472635417467 |13.123726152048068  |2.2838159076831537 |5295.006145388345  |
|2018-11-01 00:00:00|0.6307894937468415         |8.208474384920393 |13.148999594152178  |2.2595937194294926 |5172.017876179855  |
|2018-10-01 00:00:00|0.7628229143545827         |7.914270587600514 |13.665056890968364  |1.7118150249452475 |4759.774144844326  |
|2018-09-01 00:00:00|0.661902734591814          |6.923944484059692 |13.265920940667998  |2.558393137983605  |4797.116290210568  |
|2018-08-01 00:00:00|0.7400570283675421         |7.1084484234124785|14.893349576009276  |2.318984805829345  |4798.780428421616  |
|2018-07-01 00:00:00|0.6356673783300644         |5.512871867777184 |12.336293541191022  |2.0847482376357567 |4680.734733511678  |
|2018-04-01 00:00:00|NaN                        |NaN               |null                |NaN                |NaN                |
|2018-02-01 00:00:00|1.479408665649895          |6.515211437200529 |11.744393363278862  |2.6493890349272706 |3123.5622406842754 |
|2017-07-01 00:00:00|0.33234018715767655        |0.8093544217461252|3.0807935349516713  |0.7042076433836819 |6392.245301926389  |
|2017-04-01 00:00:00|0.6151828996322996         |0.3606951690832588|0.4335271675454743  |0.20732370824389487|2326.3813101037413 |
|2017-03-01 00:00:00|0.25158828801568955        |1.8491360203258909|2.0775825044187006  |0.07992159699772411|794.4662778662582  |
+-------------------+---------------------------+------------------+--------------------+-------------------+-------------------+

Prevent monthly count
+-------------------+------------------------------+------------------+-----------------------+------------------+-----------------------+
|date_month         |count(temp_skin_percentile_99)|count(hr_rmssd_50)|count(br_percentile_50)|count(total_sleep)|count(hr_percentile_10)|
+-------------------+------------------------------+------------------+-----------------------+------------------+-----------------------+
|2021-03-01 00:00:00|458096                        |458096            |458096                 |458096            |458096                 |
|2021-02-01 00:00:00|484127                        |484127            |484127                 |484127            |484127                 |
|2021-01-01 00:00:00|541798                        |541798            |541798                 |541798            |541798                 |
|2020-12-01 00:00:00|528972                        |528972            |528972                 |528972            |528972                 |
|2020-11-01 00:00:00|529738                        |529738            |529738                 |529738            |529738                 |
|2020-10-01 00:00:00|555940                        |555940            |555940                 |555940            |555940                 |
|2020-09-01 00:00:00|545711                        |545711            |545711                 |545711            |545711                 |
|2020-08-01 00:00:00|566235                        |566235            |566235                 |566235            |566235                 |
|2020-07-01 00:00:00|573126                        |573126            |573126                 |573126            |573126                 |
|2020-06-01 00:00:00|560298                        |560298            |560298                 |560298            |560298                 |
|2020-05-01 00:00:00|576595                        |576595            |576595                 |576595            |576595                 |
|2020-04-01 00:00:00|537951                        |537951            |537951                 |537951            |537951                 |
|2020-03-01 00:00:00|532243                        |532243            |532243                 |532243            |532243                 |
|2020-02-01 00:00:00|430200                        |430200            |430200                 |430200            |430200                 |
|2020-01-01 00:00:00|528259                        |528259            |528259                 |528259            |528259                 |
|2019-12-01 00:00:00|491175                        |491175            |491175                 |491175            |491175                 |
|2019-11-01 00:00:00|472676                        |472676            |472676                 |472676            |472676                 |
|2019-10-01 00:00:00|490735                        |490735            |490735                 |490735            |490735                 |
|2019-09-01 00:00:00|476475                        |476475            |476475                 |476475            |476475                 |
|2019-08-01 00:00:00|489320                        |489320            |489320                 |489320            |489320                 |
|2019-07-01 00:00:00|461278                        |461278            |461278                 |461278            |461278                 |
|2019-06-01 00:00:00|413749                        |413749            |413749                 |413749            |413749                 |
|2019-05-01 00:00:00|401010                        |401010            |401010                 |401010            |401010                 |
|2019-04-01 00:00:00|325137                        |325137            |325137                 |325137            |325137                 |
|2019-03-01 00:00:00|266480                        |266480            |266480                 |266480            |266480                 |
|2019-02-01 00:00:00|218047                        |218047            |218047                 |218047            |218047                 |
|2019-01-01 00:00:00|176291                        |176291            |176291                 |176291            |176291                 |
|2018-12-01 00:00:00|92248                         |92248             |92248                  |92248             |92248                  |
|2018-11-01 00:00:00|30364                         |30364             |30364                  |30364             |30364                  |
|2018-10-01 00:00:00|359                           |359               |359                    |359               |359                    |
|2018-09-01 00:00:00|218                           |218               |218                    |218               |218                    |
|2018-08-01 00:00:00|12                            |12                |12                     |12                |12                     |
+-------------------+------------------------------+------------------+-----------------------+------------------+-----------------------+

Conceive monthly count
+-------------------+--------------------------+------------+-------------------+------------+------------------+
|date_month         |count(temperature_skin_99)|count(hr_10)|count(hrv_rmssd_50)|count(br_50)|count(total_sleep)|
+-------------------+--------------------------+------------+-------------------+------------+------------------+
|2021-04-01 00:00:00|158387                    |158387      |158387             |158387      |158387            |
|2021-03-01 00:00:00|482380                    |482380      |482380             |482380      |482380            |
|2021-02-01 00:00:00|446494                    |446494      |446494             |446494      |446494            |
|2021-01-01 00:00:00|498063                    |498063      |498063             |498063      |498063            |
|2020-12-01 00:00:00|487292                    |487292      |487292             |487292      |487292            |
|2020-11-01 00:00:00|488674                    |488674      |488674             |488674      |488674            |
|2020-10-01 00:00:00|515089                    |515089      |515089             |515089      |515089            |
|2020-09-01 00:00:00|505735                    |505735      |505735             |505735      |505735            |
|2020-08-01 00:00:00|524852                    |524852      |524852             |524852      |524852            |
|2020-07-01 00:00:00|530906                    |530906      |530906             |530906      |530906            |
|2020-06-01 00:00:00|526785                    |526785      |526785             |526785      |526785            |
|2020-05-01 00:00:00|550228                    |550228      |550228             |550228      |550228            |
|2020-04-01 00:00:00|513335                    |513335      |513335             |513335      |513335            |
|2020-03-01 00:00:00|510946                    |510946      |510946             |510946      |510946            |
|2020-02-01 00:00:00|475764                    |475764      |475764             |475764      |475764            |
|2020-01-01 00:00:00|509550                    |509550      |509550             |509550      |509550            |
|2019-12-01 00:00:00|474978                    |474978      |474978             |474978      |474978            |
|2019-11-01 00:00:00|452260                    |452260      |452260             |452260      |452260            |
|2019-10-01 00:00:00|468151                    |468151      |468151             |468151      |468151            |
|2019-09-01 00:00:00|454548                    |454548      |454548             |454548      |454548            |
|2019-08-01 00:00:00|465561                    |465561      |465561             |465561      |465561            |
|2019-07-01 00:00:00|442342                    |442342      |442342             |442342      |442342            |
|2019-06-01 00:00:00|399135                    |399135      |399135             |399135      |399135            |
|2019-05-01 00:00:00|385594                    |385594      |385594             |385594      |385594            |
|2019-04-01 00:00:00|321331                    |321331      |321331             |321331      |321331            |
|2019-03-01 00:00:00|282135                    |282135      |282135             |282135      |282135            |
|2019-02-01 00:00:00|211777                    |211777      |211777             |211777      |211777            |
|2019-01-01 00:00:00|170004                    |170004      |170004             |170004      |170004            |
|2018-12-01 00:00:00|90007                     |90007       |90007              |90007       |90007             |
|2018-11-01 00:00:00|31976                     |31976       |31976              |31976       |31976             |
|2018-10-01 00:00:00|418                       |418         |418                |418         |418               |
|2018-09-01 00:00:00|500                       |500         |500                |500         |500               |
|2018-08-01 00:00:00|252                       |252         |252                |252         |252               |
|2018-07-01 00:00:00|28                        |28          |28                 |28          |28                |
|2018-04-01 00:00:00|1                         |1           |0                  |1           |1                 |
|2018-02-01 00:00:00|8                         |8           |8                  |8           |8                 |
|2017-07-01 00:00:00|2                         |2           |2                  |2           |2                 |
|2017-04-01 00:00:00|2                         |2           |2                  |2           |2                 |
|2017-03-01 00:00:00|6                         |6           |6                  |6           |6                 |
+-------------------+--------------------------+------------+-------------------+------------+------------------+
